Python/DataFormats/Vcd/TST_GPIO_1.vcd
$date Tuesday 2018-05-29 13:51:55 $end
$version fpVcdWriter 0.1 $end
$date Dumping CoolFlux DSP internal signals $end
$timescale 20ns $end
$scope module var $end
$var wire 24 ! __MemoryManagement_sFrameWork_State->UseCaseSelected $end
$var wire 24 " __MemoryManagement_sFrameWork_State->AlgoStatus $end
$var wire 24 # __MemoryManagement_sFrameWork_State->AlgoEvent $end
$var wire 24 $ sHapticState->sHaptic->isBusyTG $end
$upscope $end
$scope module mem $end
$var wire 24 % IOMEM@1281 $end
$var wire 24 & IOMEM@33024 $end
$var wire 24 ' IOMEM@33025 $end
$var wire 24 ( IOMEM@33026 $end
$var wire 24 ) IOMEM@32768 $end
$upscope $end
$enddefinitions $end
$dumpvars
bxxxxxxxxxxxxxxxxxxxxxxxx !
bxxxxxxxxxxxxxxxxxxxxxxxx "
bxxxxxxxxxxxxxxxxxxxxxxxx #
bxxxxxxxxxxxxxxxxxxxxxxxx $
bxxxxxxxxxxxxxxxxxxxxxxxx %
bxxxxxxxxxxxxxxxxxxxxxxxx &
bxxxxxxxxxxxxxxxxxxxxxxxx '
bxxxxxxxxxxxxxxxxxxxxxxxx (
bxxxxxxxxxxxxxxxxxxxxxxxx )
$end
#0
b000000000000000000000000 !
b000000000000000000000000 "
b000000000000000000000000 #
b000000000000000000000000 $
b000000000000000000000000 %
b000000000000000000000001 &
b000000000000000000000000 '
b000000000000000000000000 (
b000000000000000000000000 )
#1
b000000000000000000000010 %
#21
b000000000000000000000001 "
#4494
b000000000000000000000000 &
#4630
b000000000000000000001000 %
#4639
b000000000000000000000010 %
#4672
b000000000000000000000001 #
#6187
b000000000000000000000001 %
#6221
b000000000000000000000101 "
#15889
b000000000000000000000101 #
#15896
b000000000000000000100000 )
#18211
b000000000000000000001000 %
#18536
b000000000000000000000001 '
#22211
b000000000000000000000010 %
#22255
b000000000000000000000010 $
#23896
b000000000000000000000001 !
#23904
b000000000000000000000001 (
#23922
b000000000000000010000000 %
#23943
b000000000000000000000000 '
#24211
b000000000000000000000010 &
#24238
b000000000000000000100101 "
#31949
b000000000000000000100101 #
#31955
b000000000000000000000000 #
#34371
b000000000000000000000001 %
#34397
b000000000000000000000110 &
#1374447
b000000000000000000100000 %
#1374453
b000000000000000000100111 "
#1374462
b000000000000000000000010 #
#1374471
b000000000000000000000001 $
#5449632
b000000000000000000000000 $
#5466017
b000000000000000000000111 "
#5470453
b000000000000000000100010 #
#5470459
b000000000000000000000000 !
#5470467
b000000000000000000000100 &
#5479629
b000000000000000000001000 %
#5479645
b000000000000000000000010 %
#5479697
b000000000000000000001000 %
#5480437
b000000000000000000000010 %
#5480470
b000000000000000000001000 %
#5481210
b000000000000000000000010 %
#5481243
b000000000000000000001000 %
#5481983
b000000000000000000000010 %
#5482016
b000000000000000000001000 %
#5482756
b000000000000000000000010 %
#5482789
b000000000000000000001000 %
#5483529
b000000000000000000000010 %
#5483562
b000000000000000000001000 %
#5484302
b000000000000000000000010 %
#5484335
b000000000000000000001000 %
#5485075
b000000000000000000000010 %
#5485108
b000000000000000000001000 %
#5485848
b000000000000000000000010 %
#5485881
b000000000000000000001000 %
#5486621
b000000000000000000000010 %
#5486654
b000000000000000000001000 %
#5487394
b000000000000000000000010 %
#5487427
b000000000000000000001000 %
#5488167
b000000000000000000000010 %
#5488200
b000000000000000000001000 %
#5488940
b000000000000000000000010 %
#5488973
b000000000000000000001000 %
#5489713
b000000000000000000000010 %
#5489746
b000000000000000000001000 %
#5490486
b000000000000000000000010 %
#5490519
b000000000000000000001000 %
#5491259
b000000000000000000000010 %
#5491292
b000000000000000000001000 %
#5492032
b000000000000000000000010 %
#5492065
b000000000000000000001000 %
#5492805
b000000000000000000000010 %
#5492838
b000000000000000000001000 %
#5493578
b000000000000000000000010 %
#5493611
b000000000000000000001000 %
#5494351
b000000000000000000000010 %
#5494384
b000000000000000000001000 %
#5495124
b000000000000000000000010 %
#5495157
b000000000000000000001000 %
#5495897
b000000000000000000000010 %
#5495930
b000000000000000000001000 %
#5496670
b000000000000000000000010 %
#5496703
b000000000000000000001000 %
#5497443
b000000000000000000000010 %
#5497476
b000000000000000000001000 %
#5498216
b000000000000000000000010 %
#5498249
b000000000000000000001000 %
#5498989
b000000000000000000000010 %
#5499022
b000000000000000000001000 %
#5499762
b000000000000000000000010 %
#5499795
b000000000000000000001000 %
#5500535
b000000000000000000000010 %
#5500568
b000000000000000000001000 %
#5501308
b000000000000000000000010 %
#5501341
b000000000000000000001000 %
#5502081
b000000000000000000000010 %
#5502114
b000000000000000000001000 %
#5502854
b000000000000000000000010 %
#5502887
b000000000000000000001000 %
#5503627
b000000000000000000000010 %
#5503660
b000000000000000000001000 %
#5504400
b000000000000000000000010 %
#5504433
b000000000000000000001000 %
#5505173
b000000000000000000000010 %
#5505206
b000000000000000000001000 %
#5505946
b000000000000000000000010 %
#5505979
b000000000000000000001000 %
#5506719
b000000000000000000000010 %
#5506752
b000000000000000000001000 %
#5507492
b000000000000000000000010 %
#5507525
b000000000000000000001000 %
#5508265
b000000000000000000000010 %
#5508298
b000000000000000000001000 %
#5509038
b000000000000000000000010 %
#5509071
b000000000000000000001000 %
#5509811
b000000000000000000000010 %
#5509844
b000000000000000000001000 %
#5510584
b000000000000000000000010 %
#5510617
b000000000000000000001000 %
#5511357
b000000000000000000000010 %
#5511390
b000000000000000000001000 %
#5512130
b000000000000000000000010 %
#5512163
b000000000000000000001000 %
#5512903
b000000000000000000000010 %
#5512936
b000000000000000000001000 %
#5513676
b000000000000000000000010 %
#5513709
b000000000000000000001000 %
#5514449
b000000000000000000000010 %
#5514482
b000000000000000000001000 %
#5515222
b000000000000000000000010 %
#5515255
b000000000000000000001000 %
#5515995
b000000000000000000000010 %
#5516028
b000000000000000000001000 %
#5516768
b000000000000000000000010 %
#5516801
b000000000000000000001000 %
#5517541
b000000000000000000000010 %
#5517574
b000000000000000000001000 %
#5518314
b000000000000000000000010 %
#5518347
b000000000000000000001000 %
#5519087
b000000000000000000000010 %
#5519120
b000000000000000000001000 %
#5519860
b000000000000000000000010 %
#5519893
b000000000000000000001000 %
#5520633
b000000000000000000000010 %
#5520666
b000000000000000000001000 %
#5521406
b000000000000000000000010 %
#5521439
b000000000000000000001000 %
#5522179
b000000000000000000000010 %
#5522212
b000000000000000000001000 %
#5522952
b000000000000000000000010 %
#5522985
b000000000000000000001000 %
#5523725
b000000000000000000000010 %
#5523758
b000000000000000000001000 %
#5524498
b000000000000000000000010 %
#5524531
b000000000000000000001000 %
#5525271
b000000000000000000000010 %
#5525304
b000000000000000000001000 %
#5526044
b000000000000000000000010 %
#5526077
b000000000000000000001000 %
#5526817
b000000000000000000000010 %
#5526850
b000000000000000000001000 %
#5527590
b000000000000000000000010 %
#5527623
b000000000000000000001000 %
#5528363
b000000000000000000000010 %
#5528396
b000000000000000000001000 %
#5529136
b000000000000000000000010 %
#5529169
b000000000000000000001000 %
#5529909
b000000000000000000000010 %
#5529942
b000000000000000000001000 %
#5530682
b000000000000000000000010 %
#5530715
b000000000000000000001000 %
#5531455
b000000000000000000000010 %
#5531488
b000000000000000000001000 %
#5532228
b000000000000000000000010 %
#5532261
b000000000000000000001000 %
#5533001
b000000000000000000000010 %
#5533034
b000000000000000000001000 %
#5533774
b000000000000000000000010 %
#5533807
b000000000000000000001000 %
#5534547
b000000000000000000000010 %
#5534580
b000000000000000000001000 %
#5535320
b000000000000000000000010 %
#5535353
b000000000000000000001000 %
#5536093
b000000000000000000000010 %
#5536126
b000000000000000000001000 %
#5536866
b000000000000000000000010 %
#5536899
b000000000000000000001000 %
#5537639
b000000000000000000000010 %
#5537672
b000000000000000000001000 %
#5538412
b000000000000000000000010 %
#5538445
b000000000000000000001000 %
#5539185
b000000000000000000000010 %
#5539218
b000000000000000000001000 %
#5539958
b000000000000000000000010 %
#5539991
b000000000000000000001000 %
#5540731
b000000000000000000000010 %
#5540764
b000000000000000000001000 %
#5541504
b000000000000000000000010 %
#5541537
b000000000000000000001000 %
#5542277
b000000000000000000000010 %
#5542310
b000000000000000000001000 %
#5543050
b000000000000000000000010 %
#5543083
b000000000000000000001000 %
#5543823
b000000000000000000000010 %
#5543856
b000000000000000000001000 %
#5544596
b000000000000000000000010 %
#5544629
b000000000000000000001000 %
#5545369
b000000000000000000000010 %
#5545402
b000000000000000000001000 %
#5546142
b000000000000000000000010 %
#5546175
b000000000000000000001000 %
#5546915
b000000000000000000000010 %
#5546948
b000000000000000000001000 %
#5547688
b000000000000000000000010 %
#5547721
b000000000000000000001000 %
#5548461
b000000000000000000000010 %
#5548494
b000000000000000000001000 %
#5549234
b000000000000000000000010 %
#5549267
b000000000000000000001000 %
#5550007
b000000000000000000000010 %
#5550040
b000000000000000000001000 %
#5550780
b000000000000000000000010 %
#5550813
b000000000000000000001000 %
#5551553
b000000000000000000000010 %
#5551586
b000000000000000000001000 %
#5552326
b000000000000000000000010 %
#5552359
b000000000000000000001000 %
#5553099
b000000000000000000000010 %
#5553132
b000000000000000000001000 %
#5553872
b000000000000000000000010 %
#5553905
b000000000000000000001000 %
#5554645
b000000000000000000000010 %
#5554678
b000000000000000000001000 %
#5555418
b000000000000000000000010 %
#5555451
b000000000000000000001000 %
#5556191
b000000000000000000000010 %
#5556224
b000000000000000000001000 %
#5556964
b000000000000000000000010 %
#5556997
b000000000000000000001000 %
#5557737
b000000000000000000000010 %
#5557770
b000000000000000000001000 %
#5558510
b000000000000000000000010 %
#5558543
b000000000000000000001000 %
#5559283
b000000000000000000000010 %
#5559316
b000000000000000000001000 %
#5560056
b000000000000000000000010 %
#5560089
b000000000000000000001000 %
#5560829
b000000000000000000000010 %
#5560862
b000000000000000000001000 %
#5561602
b000000000000000000000010 %
#5561635
b000000000000000000001000 %
#5562375
b000000000000000000000010 %
#5562408
b000000000000000000001000 %
#5563148
b000000000000000000000010 %
#5563181
b000000000000000000001000 %
#5563921
b000000000000000000000010 %
#5563954
b000000000000000000001000 %
#5564694
b000000000000000000000010 %
#5564727
b000000000000000000001000 %
#5565467
b000000000000000000000010 %
#5565500
b000000000000000000001000 %
#5566240
b000000000000000000000010 %
#5566273
b000000000000000000001000 %
#5567013
b000000000000000000000010 %
#5567046
b000000000000000000001000 %
#5567786
b000000000000000000000010 %
#5567819
b000000000000000000001000 %
#5568559
b000000000000000000000010 %
#5568592
b000000000000000000001000 %
#5569332
b000000000000000000000010 %
#5569365
b000000000000000000001000 %
#5570105
b000000000000000000000010 %
#5570138
b000000000000000000001000 %
#5570878
b000000000000000000000010 %
#5570911
b000000000000000000001000 %
#5571651
b000000000000000000000010 %
#5571684
b000000000000000000001000 %
#5572424
b000000000000000000000010 %
#5572457
b000000000000000000001000 %
#5573197
b000000000000000000000010 %
#5573230
b000000000000000000001000 %
#5573970
b000000000000000000000010 %
#5574003
b000000000000000000001000 %
#5574743
b000000000000000000000010 %
#5574776
b000000000000000000001000 %
#5575516
b000000000000000000000010 %
#5575549
b000000000000000000001000 %
#5576289
b000000000000000000000010 %
#5576322
b000000000000000000001000 %
#5577062
b000000000000000000000010 %
#5577095
b000000000000000000001000 %
#5577835
b000000000000000000000010 %
#5577868
b000000000000000000001000 %
#5578608
b000000000000000000000010 %
#5578641
b000000000000000000001000 %
#5579381
b000000000000000000000010 %
#5579414
b000000000000000000001000 %
#5580154
b000000000000000000000010 %
#5580187
b000000000000000000001000 %
#5580927
b000000000000000000000010 %
#5580960
b000000000000000000001000 %
#5581700
b000000000000000000000010 %
#5581733
b000000000000000000001000 %
#5582473
b000000000000000000000010 %
#5582506
b000000000000000000001000 %
#5583246
b000000000000000000000010 %
#5583279
b000000000000000000001000 %
#5584019
b000000000000000000000010 %
#5584052
b000000000000000000001000 %
#5584792
b000000000000000000000010 %
#5584825
b000000000000000000001000 %
#5585565
b000000000000000000000010 %
#5585598
b000000000000000000001000 %
#5586338
b000000000000000000000010 %
#5586371
b000000000000000000001000 %
#5587111
b000000000000000000000010 %
#5587144
b000000000000000000001000 %
#5587884
b000000000000000000000010 %
#5587917
b000000000000000000001000 %
#5588657
b000000000000000000000010 %
#5588690
b000000000000000000001000 %
#5589430
b000000000000000000000010 %
#5589463
b000000000000000000001000 %
#5590203
b000000000000000000000010 %
#5590236
b000000000000000000001000 %
#5590976
b000000000000000000000010 %
#5591009
b000000000000000000001000 %
#5591749
b000000000000000000000010 %
#5591782
b000000000000000000001000 %
#5592522
b000000000000000000000010 %
#5592555
b000000000000000000001000 %
#5593295
b000000000000000000000010 %
#5593328
b000000000000000000001000 %
#5594068
b000000000000000000000010 %
#5594101
b000000000000000000001000 %
#5594841
b000000000000000000000010 %
#5594874
b000000000000000000001000 %
#5595614
b000000000000000000000010 %
#5595647
b000000000000000000001000 %
#5596387
b000000000000000000000010 %
#5596420
b000000000000000000001000 %
#5597160
b000000000000000000000010 %
#5597193
b000000000000000000001000 %
#5597933
b000000000000000000000010 %
#5597966
b000000000000000000001000 %
#5598706
b000000000000000000000010 %
#5598739
b000000000000000000001000 %
#5599479
b000000000000000000000010 %
#5599512
b000000000000000000001000 %
#5600252
b000000000000000000000010 %
#5600285
b000000000000000000001000 %
#5601025
b000000000000000000000010 %
#5601058
b000000000000000000001000 %
#5601798
b000000000000000000000010 %
#5601831
b000000000000000000001000 %
#5602571
b000000000000000000000010 %
#5602604
b000000000000000000001000 %
#5603344
b000000000000000000000010 %
#5603377
b000000000000000000001000 %
#5604117
b000000000000000000000010 %
#5604150
b000000000000000000001000 %
#5604890
b000000000000000000000010 %
#5604923
b000000000000000000001000 %
#5605663
b000000000000000000000010 %
#5605696
b000000000000000000001000 %
#5606436
b000000000000000000000010 %
#5606469
b000000000000000000001000 %
#5607209
b000000000000000000000010 %
#5607242
b000000000000000000001000 %
#5607982
b000000000000000000000010 %
#5608015
b000000000000000000001000 %
#5608755
b000000000000000000000010 %
#5608788
b000000000000000000001000 %
#5609528
b000000000000000000000010 %
#5609561
b000000000000000000001000 %
#5610301
b000000000000000000000010 %
#5610334
b000000000000000000001000 %
#5611074
b000000000000000000000010 %
#5611107
b000000000000000000001000 %
#5611847
b000000000000000000000010 %
#5611880
b000000000000000000001000 %
#5612620
b000000000000000000000010 %
#5612653
b000000000000000000001000 %
#5613393
b000000000000000000000010 %
#5613426
b000000000000000000001000 %
#5614166
b000000000000000000000010 %
#5614199
b000000000000000000001000 %
#5614939
b000000000000000000000010 %
#5614972
b000000000000000000001000 %
#5615712
b000000000000000000000010 %
#5615745
b000000000000000000001000 %
#5616485
b000000000000000000000010 %
#5616518
b000000000000000000001000 %
#5617258
b000000000000000000000010 %
#5617291
b000000000000000000001000 %
#5618031
b000000000000000000000010 %
#5618064
b000000000000000000001000 %
#5618804
b000000000000000000000010 %
#5618837
b000000000000000000001000 %
#5619577
b000000000000000000000010 %
#5619610
b000000000000000000001000 %
#5620350
b000000000000000000000010 %
#5620383
b000000000000000000001000 %
#5621123
b000000000000000000000010 %
#5621156
b000000000000000000001000 %
#5621896
b000000000000000000000010 %
#5621929
b000000000000000000001000 %
#5622669
b000000000000000000000010 %
#5622702
b000000000000000000001000 %
#5623442
b000000000000000000000010 %
#5623475
b000000000000000000001000 %
#5624215
b000000000000000000000010 %
#5624248
b000000000000000000001000 %
#5624988
b000000000000000000000010 %
#5625021
b000000000000000000001000 %
#5625761
b000000000000000000000010 %
#5625794
b000000000000000000001000 %
#5626534
b000000000000000000000010 %
#5626567
b000000000000000000001000 %
#5627307
b000000000000000000000010 %
#5627340
b000000000000000000001000 %
#5628080
b000000000000000000000010 %
#5628113
b000000000000000000001000 %
#5628853
b000000000000000000000010 %
#5628886
b000000000000000000001000 %
#5629626
b000000000000000000000010 %
#5629659
b000000000000000000001000 %
#5630399
b000000000000000000000010 %
#5630432
b000000000000000000001000 %
#5631172
b000000000000000000000010 %
#5631205
b000000000000000000001000 %
#5631945
b000000000000000000000010 %
#5631978
b000000000000000000001000 %
#5632718
b000000000000000000000010 %
#5632751
b000000000000000000001000 %
#5633491
b000000000000000000000010 %
#5633524
b000000000000000000001000 %
#5634264
b000000000000000000000010 %
#5634297
b000000000000000000001000 %
#5635037
b000000000000000000000010 %
#5635070
b000000000000000000001000 %
#5635810
b000000000000000000000010 %
#5635843
b000000000000000000001000 %
#5636583
b000000000000000000000010 %
#5636616
b000000000000000000001000 %
#5637356
b000000000000000000000010 %
#5637389
b000000000000000000001000 %
#5638129
b000000000000000000000010 %
#5638162
b000000000000000000001000 %
#5638902
b000000000000000000000010 %
#5638935
b000000000000000000001000 %
#5639675
b000000000000000000000010 %
#5639708
b000000000000000000001000 %
#5640448
b000000000000000000000010 %
#5640481
b000000000000000000001000 %
#5641221
b000000000000000000000010 %
#5641254
b000000000000000000001000 %
#5641994
b000000000000000000000010 %
#5642027
b000000000000000000001000 %
#5642767
b000000000000000000000010 %
#5642800
b000000000000000000001000 %
#5643540
b000000000000000000000010 %
#5643573
b000000000000000000001000 %
#5644313
b000000000000000000000010 %
#5644346
b000000000000000000001000 %
#5645086
b000000000000000000000010 %
#5645119
b000000000000000000001000 %
#5645859
b000000000000000000000010 %
#5645892
b000000000000000000001000 %
#5646632
b000000000000000000000010 %
#5646665
b000000000000000000001000 %
#5647405
b000000000000000000000010 %
#5647438
b000000000000000000001000 %
#5648178
b000000000000000000000010 %
#5648211
b000000000000000000001000 %
#5648951
b000000000000000000000010 %
#5648984
b000000000000000000001000 %
#5649724
b000000000000000000000010 %
#5649757
b000000000000000000001000 %
#5650497
b000000000000000000000010 %
#5650530
b000000000000000000001000 %
#5651270
b000000000000000000000010 %
#5651303
b000000000000000000001000 %
#5652043
b000000000000000000000010 %
#5652076
b000000000000000000001000 %
#5652816
b000000000000000000000010 %
#5652849
b000000000000000000001000 %
#5653589
b000000000000000000000010 %
#5653622
b000000000000000000001000 %
#5654362
b000000000000000000000010 %
#5654395
b000000000000000000001000 %
#5655135
b000000000000000000000010 %
#5655168
b000000000000000000001000 %
#5655908
b000000000000000000000010 %
#5655941
b000000000000000000001000 %
#5656681
b000000000000000000000010 %
#5656714
b000000000000000000001000 %
#5657454
b000000000000000000000010 %
#5657487
b000000000000000000001000 %
#5658227
b000000000000000000000010 %
#5658260
b000000000000000000001000 %
#5659000
b000000000000000000000010 %
#5659033
b000000000000000000001000 %
#5659773
b000000000000000000000010 %
#5659806
b000000000000000000001000 %
#5660546
b000000000000000000000010 %
#5660579
b000000000000000000001000 %
#5661319
b000000000000000000000010 %
#5661352
b000000000000000000001000 %
#5662092
b000000000000000000000010 %
#5662125
b000000000000000000001000 %
#5662865
b000000000000000000000010 %
#5662898
b000000000000000000001000 %
#5663638
b000000000000000000000010 %
#5663671
b000000000000000000001000 %
#5664411
b000000000000000000000010 %
#5664444
b000000000000000000001000 %
#5665184
b000000000000000000000010 %
#5665217
b000000000000000000001000 %
#5665957
b000000000000000000000010 %
#5665990
b000000000000000000001000 %
#5666730
b000000000000000000000010 %
#5666763
b000000000000000000001000 %
#5667503
b000000000000000000000010 %
#5667536
b000000000000000000001000 %
#5668276
b000000000000000000000010 %
#5668309
b000000000000000000001000 %
#5669049
b000000000000000000000010 %
#5669082
b000000000000000000001000 %
#5669822
b000000000000000000000010 %
#5669855
b000000000000000000001000 %
#5670595
b000000000000000000000010 %
#5670628
b000000000000000000001000 %
#5671368
b000000000000000000000010 %
#5671401
b000000000000000000001000 %
#5672141
b000000000000000000000010 %
#5672174
b000000000000000000001000 %
#5672914
b000000000000000000000010 %
#5672947
b000000000000000000001000 %
#5673687
b000000000000000000000010 %
#5673720
b000000000000000000001000 %
#5674460
b000000000000000000000010 %
#5674493
b000000000000000000001000 %
#5675233
b000000000000000000000010 %
#5675266
b000000000000000000001000 %
#5676006
b000000000000000000000010 %
#5676039
b000000000000000000001000 %
#5676779
b000000000000000000000010 %
#5676812
b000000000000000000001000 %
#5677552
b000000000000000000000010 %
#5677585
b000000000000000000001000 %
#5678325
b000000000000000000000010 %
#5678358
b000000000000000000001000 %
#5679098
b000000000000000000000010 %
#5679131
b000000000000000000001000 %
#5679871
b000000000000000000000010 %
#5679904
b000000000000000000001000 %
#5680644
b000000000000000000000010 %
#5680677
b000000000000000000001000 %
#5681417
b000000000000000000000010 %
#5681450
b000000000000000000001000 %
#5682190
b000000000000000000000010 %
#5682223
b000000000000000000001000 %
#5682963
b000000000000000000000010 %
#5682996
b000000000000000000001000 %
#5683736
b000000000000000000000010 %
#5683769
b000000000000000000001000 %
#5684509
b000000000000000000000010 %
#5684542
b000000000000000000001000 %
#5685282
b000000000000000000000010 %
#5685315
b000000000000000000001000 %
#5686055
b000000000000000000000010 %
#5686088
b000000000000000000001000 %
#5686828
b000000000000000000000010 %
#5686861
b000000000000000000001000 %
#5687601
b000000000000000000000010 %
#5687634
b000000000000000000001000 %
#5688374
b000000000000000000000010 %
#5688407
b000000000000000000001000 %
#5689147
b000000000000000000000010 %
#5689180
b000000000000000000001000 %
#5689920
b000000000000000000000010 %
#5689953
b000000000000000000001000 %
#5690693
b000000000000000000000010 %
#5690726
b000000000000000000001000 %
#5691466
b000000000000000000000010 %
#5691499
b000000000000000000001000 %
#5692239
b000000000000000000000010 %
#5692272
b000000000000000000001000 %
#5693012
b000000000000000000000010 %
#5693045
b000000000000000000001000 %
#5693785
b000000000000000000000010 %
#5693818
b000000000000000000001000 %
#5694558
b000000000000000000000010 %
#5694591
b000000000000000000001000 %
#5695331
b000000000000000000000010 %
#5695364
b000000000000000000001000 %
#5696104
b000000000000000000000010 %
#5696137
b000000000000000000001000 %
#5696877
b000000000000000000000010 %
#5696910
b000000000000000000001000 %
#5697650
b000000000000000000000010 %
#5697683
b000000000000000000001000 %
#5698423
b000000000000000000000010 %
#5698456
b000000000000000000001000 %
#5699196
b000000000000000000000010 %
#5699229
b000000000000000000001000 %
#5699969
b000000000000000000000010 %
#5700002
b000000000000000000001000 %
#5700742
b000000000000000000000010 %
#5700775
b000000000000000000001000 %
#5701515
b000000000000000000000010 %
#5701548
b000000000000000000001000 %
#5702288
b000000000000000000000010 %
#5702321
b000000000000000000001000 %
#5703061
b000000000000000000000010 %
#5703094
b000000000000000000001000 %
#5703834
b000000000000000000000010 %
#5703867
b000000000000000000001000 %
#5704607
b000000000000000000000010 %
#5704640
b000000000000000000001000 %
#5705380
b000000000000000000000010 %
#5705413
b000000000000000000001000 %
#5706153
b000000000000000000000010 %
#5706186
b000000000000000000001000 %
#5706926
b000000000000000000000010 %
#5706959
b000000000000000000001000 %
#5707699
b000000000000000000000010 %
#5707732
b000000000000000000001000 %
#5708472
b000000000000000000000010 %
#5708505
b000000000000000000001000 %
#5709245
b000000000000000000000010 %
#5709278
b000000000000000000001000 %
#5710018
b000000000000000000000010 %
#5710051
b000000000000000000001000 %
#5710791
b000000000000000000000010 %
#5710824
b000000000000000000001000 %
#5711564
b000000000000000000000010 %
#5711597
b000000000000000000001000 %
#5712337
b000000000000000000000010 %
#5712370
b000000000000000000001000 %
#5713110
b000000000000000000000010 %
#5713143
b000000000000000000001000 %
#5713883
b000000000000000000000010 %
#5713916
b000000000000000000001000 %
#5714656
b000000000000000000000010 %
#5714689
b000000000000000000001000 %
#5715429
b000000000000000000000010 %
#5715462
b000000000000000000001000 %
#5716202
b000000000000000000000010 %
#5716235
b000000000000000000001000 %
#5716975
b000000000000000000000010 %
#5717008
b000000000000000000001000 %
#5717748
b000000000000000000000010 %
#5717781
b000000000000000000001000 %
#5718521
b000000000000000000000010 %
#5718554
b000000000000000000001000 %
#5719294
b000000000000000000000010 %
#5719327
b000000000000000000001000 %
#5720067
b000000000000000000000010 %
#5720100
b000000000000000000001000 %
#5720840
b000000000000000000000010 %
#5720873
b000000000000000000001000 %
#5721613
b000000000000000000000010 %
#5721646
b000000000000000000001000 %
#5722386
b000000000000000000000010 %
#5722419
b000000000000000000001000 %
#5723159
b000000000000000000000010 %
#5723192
b000000000000000000001000 %
#5723932
b000000000000000000000010 %
#5723965
b000000000000000000001000 %
#5724705
b000000000000000000000010 %
#5724738
b000000000000000000001000 %
#5725478
b000000000000000000000010 %
#5725511
b000000000000000000001000 %
#5726251
b000000000000000000000010 %
#5726284
b000000000000000000001000 %
#5727024
b000000000000000000000010 %
#5727057
b000000000000000000001000 %
#5727797
b000000000000000000000010 %
#5727830
b000000000000000000001000 %
#5728570
b000000000000000000000010 %
#5728603
b000000000000000000001000 %
#5729343
b000000000000000000000010 %
#5729376
b000000000000000000001000 %
#5730116
b000000000000000000000010 %
#5730149
b000000000000000000001000 %
#5730889
b000000000000000000000010 %
#5730922
b000000000000000000001000 %
#5731662
b000000000000000000000010 %
#5731695
b000000000000000000001000 %
#5732435
b000000000000000000000010 %
#5732468
b000000000000000000001000 %
#5733208
b000000000000000000000010 %
#5733241
b000000000000000000001000 %
#5733981
b000000000000000000000010 %
#5734014
b000000000000000000001000 %
#5734754
b000000000000000000000010 %
#5734787
b000000000000000000001000 %
#5735527
b000000000000000000000010 %
#5735560
b000000000000000000001000 %
#5736300
b000000000000000000000010 %
#5736333
b000000000000000000001000 %
#5737073
b000000000000000000000010 %
#5737106
b000000000000000000001000 %
#5737846
b000000000000000000000010 %
#5737879
b000000000000000000001000 %
#5738619
b000000000000000000000010 %
#5738652
b000000000000000000001000 %
#5739392
b000000000000000000000010 %
#5739425
b000000000000000000001000 %
#5740165
b000000000000000000000010 %
#5740198
b000000000000000000001000 %
#5740938
b000000000000000000000010 %
#5740971
b000000000000000000001000 %
#5741711
b000000000000000000000010 %
#5741744
b000000000000000000001000 %
#5742484
b000000000000000000000010 %
#5742517
b000000000000000000001000 %
#5743257
b000000000000000000000010 %
#5743290
b000000000000000000001000 %
#5744030
b000000000000000000000010 %
#5744063
b000000000000000000001000 %
#5744803
b000000000000000000000010 %
#5744836
b000000000000000000001000 %
#5745576
b000000000000000000000010 %
#5745609
b000000000000000000001000 %
#5746349
b000000000000000000000010 %
#5746382
b000000000000000000001000 %
#5747122
b000000000000000000000010 %
#5747155
b000000000000000000001000 %
#5747895
b000000000000000000000010 %
#5747928
b000000000000000000001000 %
#5748668
b000000000000000000000010 %
#5748701
b000000000000000000001000 %
#5749441
b000000000000000000000010 %
#5749474
b000000000000000000001000 %
#5750214
b000000000000000000000010 %
#5750247
b000000000000000000001000 %
#5750987
b000000000000000000000010 %
#5751020
b000000000000000000001000 %
#5751760
b000000000000000000000010 %
#5751793
b000000000000000000001000 %
#5752533
b000000000000000000000010 %
#5752566
b000000000000000000001000 %
#5753306
b000000000000000000000010 %
#5753339
b000000000000000000001000 %
#5754079
b000000000000000000000010 %
#5754112
b000000000000000000001000 %
#5754852
b000000000000000000000010 %
#5754885
b000000000000000000001000 %
#5755625
b000000000000000000000010 %
#5755658
b000000000000000000001000 %
#5756398
b000000000000000000000010 %
#5756431
b000000000000000000001000 %
#5757171
b000000000000000000000010 %
#5757204
b000000000000000000001000 %
#5757944
b000000000000000000000010 %
#5757977
b000000000000000000001000 %
#5758717
b000000000000000000000010 %
#5758750
b000000000000000000001000 %
#5759490
b000000000000000000000010 %
#5759523
b000000000000000000001000 %
#5760263
b000000000000000000000010 %
#5760296
b000000000000000000001000 %
#5761036
b000000000000000000000010 %
#5761069
b000000000000000000001000 %
#5761809
b000000000000000000000010 %
#5761842
b000000000000000000001000 %
#5762582
b000000000000000000000010 %
#5762615
b000000000000000000001000 %
#5763355
b000000000000000000000010 %
#5763388
b000000000000000000001000 %
#5764128
b000000000000000000000010 %
#5764161
b000000000000000000001000 %
#5764901
b000000000000000000000010 %
#5764934
b000000000000000000001000 %
#5765674
b000000000000000000000010 %
#5765707
b000000000000000000001000 %
#5766447
b000000000000000000000010 %
#5766480
b000000000000000000001000 %
#5767220
b000000000000000000000010 %
#5767253
b000000000000000000001000 %
#5767993
b000000000000000000000010 %
#5768026
b000000000000000000001000 %
#5768766
b000000000000000000000010 %
#5768799
b000000000000000000001000 %
#5769539
b000000000000000000000010 %
#5769572
b000000000000000000001000 %
#5770312
b000000000000000000000010 %
#5770345
b000000000000000000001000 %
#5771085
b000000000000000000000010 %
#5771118
b000000000000000000001000 %
#5771858
b000000000000000000000010 %
#5771891
b000000000000000000001000 %
#5772631
b000000000000000000000010 %
#5772664
b000000000000000000001000 %
#5773404
b000000000000000000000010 %
#5773437
b000000000000000000001000 %
#5774177
b000000000000000000000010 %
#5774210
b000000000000000000001000 %
#5774950
b000000000000000000000010 %
#5774983
b000000000000000000001000 %
#5775723
b000000000000000000000010 %
#5775756
b000000000000000000001000 %
#5776496
b000000000000000000000010 %
#5776529
b000000000000000000001000 %
#5777269
b000000000000000000000010 %
#5777302
b000000000000000000001000 %
#5778042
b000000000000000000000010 %
#5778075
b000000000000000000001000 %
#5778815
b000000000000000000000010 %
#5778848
b000000000000000000001000 %
#5779588
b000000000000000000000010 %
#5779621
b000000000000000000001000 %
#5780361
b000000000000000000000010 %
#5780394
b000000000000000000001000 %
#5781134
b000000000000000000000010 %
#5781167
b000000000000000000001000 %
#5781907
b000000000000000000000010 %
#5781940
b000000000000000000001000 %
#5782680
b000000000000000000000010 %
#5782713
b000000000000000000001000 %
#5783453
b000000000000000000000010 %
#5783486
b000000000000000000001000 %
#5784226
b000000000000000000000010 %
#5784259
b000000000000000000001000 %
#5784999
b000000000000000000000010 %
#5785032
b000000000000000000001000 %
#5785772
b000000000000000000000010 %
#5785805
b000000000000000000001000 %
#5786545
b000000000000000000000010 %
#5786578
b000000000000000000001000 %
#5787318
b000000000000000000000010 %
#5787351
b000000000000000000001000 %
#5788091
b000000000000000000000010 %
#5788124
b000000000000000000001000 %
#5788864
b000000000000000000000010 %
#5788897
b000000000000000000001000 %
#5789637
b000000000000000000000010 %
#5789670
b000000000000000000001000 %
#5790410
b000000000000000000000010 %
